HW 03
…
print(covid_survey_longer)

# A tibble: 43,428 × 5
   response_id explanatory    explanatory_value response         
         <dbl> <chr>          <fct>             <chr>            
 1           1 exp_profession 1                 resp_safety      
 2           1 exp_profession 1                 resp_confidence_…
 3           1 exp_profession 1                 resp_concern_saf…
 4           1 exp_profession 1                 resp_feel_safe_a…
 5           1 exp_profession 1                 resp_will_recomm…
 6           1 exp_profession 1                 resp_trust_info  
 7           1 exp_flu_vax    1                 resp_safety      
 8           1 exp_flu_vax    1                 resp_confidence_…
 9           1 exp_flu_vax    1                 resp_concern_saf…
10           1 exp_flu_vax    1                 resp_feel_safe_a…
# ℹ 43,418 more rows
# ℹ 1 more variable: response_value <dbl>
…
print(covid_survey_summary_stats_by_group)

# A tibble: 126 × 6
   explanatory explanatory_value response        mean   low  high
   <chr>       <fct>             <chr>          <dbl> <dbl> <dbl>
 1 exp_age_bin 0                 resp_concern_…  3.35     2   4.4
 2 exp_age_bin 0                 resp_confiden…  1.65     1   2.4
 3 exp_age_bin 0                 resp_feel_saf…  1.71     1   3.8
 4 exp_age_bin 0                 resp_safety     1.41     1   2  
 5 exp_age_bin 0                 resp_trust_in…  1.41     1   2  
 6 exp_age_bin 0                 resp_will_rec…  1.35     1   1.8
 7 exp_age_bin 20                resp_concern_…  3.32     2   5  
 8 exp_age_bin 20                resp_confiden…  1.31     1   2  
 9 exp_age_bin 20                resp_feel_saf…  1.20     1   2  
10 exp_age_bin 20                resp_safety     1.95     1   5  
# ℹ 116 more rows
…
# Ensure grouped summary has the same levels too
covid_survey_summary_stats_by_group$explanatory_value <- factor(
  covid_survey_summary_stats_by_group$explanatory_value,
  levels = age_levels_with_all
)

# Bind them safely now
covid_survey_summary_stats <- bind_rows(
  covid_survey_summary_stats_all,
  covid_survey_summary_stats_by_group
)

print(covid_survey_summary_stats)

# A tibble: 132 × 6
   response        mean   low  high explanatory explanatory_value
   <chr>          <dbl> <dbl> <dbl> <chr>       <fct>            
 1 resp_concern_…  3.28     1   5   All         ""               
 2 resp_confiden…  1.43     1   2   All         ""               
 3 resp_feel_saf…  1.36     1   2   All         ""               
 4 resp_safety     2.03     1   5   All         ""               
 5 resp_trust_in…  1.40     1   2   All         ""               
 6 resp_will_rec…  1.21     1   2   All         ""               
 7 resp_concern_…  3.35     2   4.4 exp_age_bin "0"              
 8 resp_confiden…  1.65     1   2.4 exp_age_bin "0"              
 9 resp_feel_saf…  1.71     1   3.8 exp_age_bin "0"              
10 resp_safety     1.41     1   2   exp_age_bin "0"              
# ℹ 122 more rows
…
